^C:\USERS\BOBMA\SOURCE\REPOS\PRACTIC_17.5\PRACTIC_17.5.CPP
C:\USERS\BOBMA\SOURCE\REPOS\PRACTIC_17.5\X64\DEBUG\VC143.PDB
C:\USERS\BOBMA\SOURCE\REPOS\PRACTIC_17.5\X64\DEBUG\VC143.IDB
C:\USERS\BOBMA\SOURCE\REPOS\PRACTIC_17.5\X64\DEBUG\PRACTIC_17.5.OBJ
